<?xml version="1.0" encoding="UTF-8" standalone="no"?>
<!DOCTYPE svg PUBLIC "-//W3C//DTD SVG 1.1//EN"
 "http://www.w3.org/Graphics/SVG/1.1/DTD/svg11.dtd">
<!-- Generated by graphviz version 2.40.1 (20161225.0304)
 -->
<!-- Title: G Pages: 1 -->
<svg width="476pt" height="188pt"
 viewBox="0.00 0.00 476.00 188.00" xmlns="http://www.w3.org/2000/svg" xmlns:xlink="http://www.w3.org/1999/xlink">
<g id="graph0" class="graph" transform="scale(1 1) rotate(0) translate(4 184)">
<title>G</title>
<polygon fill="#ffffff" stroke="transparent" points="-4,4 -4,-184 472,-184 472,4 -4,4"/>
<!-- /safety_supervisor -->
<g id="node1" class="node">
<title>/safety_supervisor</title>
<ellipse fill="#072c43" stroke="#000000" cx="285" cy="-90" rx="96.3833" ry="18"/>
<text text-anchor="middle" x="285" y="-86.3" font-family="sans-serif" font-size="14.00" fill="#a4c4bf">/safety_supervisor</text>
</g>
<!-- /diagnostics -->
<g id="node2" class="node">
<title>/diagnostics</title>
<polygon fill="#fbd740" stroke="#000000" points="252.5,-36 151.5,-36 151.5,0 252.5,0 252.5,-36"/>
<text text-anchor="middle" x="202" y="-14.3" font-family="sans-serif" font-size="14.00" fill="#000000">/diagnostics</text>
</g>
<!-- /safety_supervisor&#45;&gt;/diagnostics -->
<g id="edge1" class="edge">
<title>/safety_supervisor&#45;&gt;/diagnostics</title>
<path fill="none" stroke="#000000" d="M264.4831,-72.2022C254.285,-63.3557 241.7928,-52.5191 230.6659,-42.8668"/>
<polygon fill="#000000" stroke="#000000" points="232.7047,-40.0021 222.8573,-36.0931 228.1178,-45.2898 232.7047,-40.0021"/>
</g>
<!-- /safety_supervisor/status -->
<g id="node3" class="node">
<title>/safety_supervisor/status</title>
<polygon fill="#fbd740" stroke="#000000" points="467,-36 271,-36 271,0 467,0 467,-36"/>
<text text-anchor="middle" x="369" y="-14.3" font-family="sans-serif" font-size="14.00" fill="#000000">/safety_supervisor/status</text>
</g>
<!-- /safety_supervisor&#45;&gt;/safety_supervisor/status -->
<g id="edge2" class="edge">
<title>/safety_supervisor&#45;&gt;/safety_supervisor/status</title>
<path fill="none" stroke="#000000" d="M305.7641,-72.2022C316.085,-63.3557 328.7278,-52.5191 339.9888,-42.8668"/>
<polygon fill="#000000" stroke="#000000" points="342.5766,-45.2585 347.8914,-36.0931 338.021,-39.9437 342.5766,-45.2585"/>
</g>
<!-- /recovery_actions/external_recovery_action -->
<g id="node4" class="node">
<title>/recovery_actions/external_recovery_action</title>
<polygon fill="#fbd740" stroke="#000000" points="328,-180 0,-180 0,-144 328,-144 328,-180"/>
<text text-anchor="middle" x="164" y="-158.3" font-family="sans-serif" font-size="14.00" fill="#000000">/recovery_actions/external_recovery_action</text>
</g>
<!-- /recovery_actions/external_recovery_action&#45;&gt;/safety_supervisor -->
<g id="edge3" class="edge">
<title>/recovery_actions/external_recovery_action&#45;&gt;/safety_supervisor</title>
<path fill="none" stroke="#000000" d="M194.5334,-143.8314C210.6303,-134.253 230.5136,-122.4217 247.5365,-112.2923"/>
<polygon fill="#000000" stroke="#000000" points="249.3385,-115.2929 256.1424,-107.1715 245.7589,-109.2773 249.3385,-115.2929"/>
</g>
<!-- /vehicle_status -->
<g id="node5" class="node">
<title>/vehicle_status</title>
<polygon fill="#fbd740" stroke="#000000" points="468,-180 346,-180 346,-144 468,-144 468,-180"/>
<text text-anchor="middle" x="407" y="-158.3" font-family="sans-serif" font-size="14.00" fill="#000000">/vehicle_status</text>
</g>
<!-- /vehicle_status&#45;&gt;/safety_supervisor -->
<g id="edge4" class="edge">
<title>/vehicle_status&#45;&gt;/safety_supervisor</title>
<path fill="none" stroke="#000000" d="M376.2142,-143.8314C359.9843,-134.253 339.9367,-122.4217 322.7731,-112.2923"/>
<polygon fill="#000000" stroke="#000000" points="324.4871,-109.2398 314.0961,-107.1715 320.9293,-115.2683 324.4871,-109.2398"/>
</g>
</g>
</svg>
