<?xml version="1.0" encoding="UTF-8" standalone="no"?>
<!DOCTYPE svg PUBLIC "-//W3C//DTD SVG 1.1//EN"
 "http://www.w3.org/Graphics/SVG/1.1/DTD/svg11.dtd">
<!-- Generated by graphviz version 2.40.1 (20161225.0304)
 -->
<!-- Title: G Pages: 1 -->
<svg width="1298pt" height="188pt"
 viewBox="0.00 0.00 1297.50 188.00" xmlns="http://www.w3.org/2000/svg" xmlns:xlink="http://www.w3.org/1999/xlink">
<g id="graph0" class="graph" transform="scale(1 1) rotate(0) translate(4 184)">
<title>G</title>
<polygon fill="#ffffff" stroke="transparent" points="-4,4 -4,-184 1293.5,-184 1293.5,4 -4,4"/>
<!-- /navigator -->
<g id="node1" class="node">
<title>/navigator</title>
<ellipse fill="#072c43" stroke="#000000" cx="625" cy="-90" rx="57.6901" ry="18"/>
<text text-anchor="middle" x="625" y="-86.3" font-family="sans-serif" font-size="14.00" fill="#a4c4bf">/navigator</text>
</g>
<!-- /diagnostics -->
<g id="node2" class="node">
<title>/diagnostics</title>
<polygon fill="#fbd740" stroke="#000000" points="349.5,-36 248.5,-36 248.5,0 349.5,0 349.5,-36"/>
<text text-anchor="middle" x="299" y="-14.3" font-family="sans-serif" font-size="14.00" fill="#000000">/diagnostics</text>
</g>
<!-- /navigator&#45;&gt;/diagnostics -->
<g id="edge1" class="edge">
<title>/navigator&#45;&gt;/diagnostics</title>
<path fill="none" stroke="#000000" d="M574.1919,-81.1105C522.5315,-71.7531 440.0297,-55.935 359.4625,-36"/>
<polygon fill="#000000" stroke="#000000" points="360.1991,-32.5765 349.649,-33.5486 358.5026,-39.3678 360.1991,-32.5765"/>
</g>
<!-- /navigator/gps_ned -->
<g id="node3" class="node">
<title>/navigator/gps_ned</title>
<polygon fill="#fbd740" stroke="#000000" points="522,-36 368,-36 368,0 522,0 522,-36"/>
<text text-anchor="middle" x="445" y="-14.3" font-family="sans-serif" font-size="14.00" fill="#000000">/navigator/gps_ned</text>
</g>
<!-- /navigator&#45;&gt;/navigator/gps_ned -->
<g id="edge2" class="edge">
<title>/navigator&#45;&gt;/navigator/gps_ned</title>
<path fill="none" stroke="#000000" d="M589.4378,-75.7751C563.8478,-65.5391 528.8525,-51.541 499.7178,-39.8871"/>
<polygon fill="#000000" stroke="#000000" points="500.6688,-36.4979 490.0841,-36.0336 498.069,-42.9973 500.6688,-36.4979"/>
</g>
<!-- /navigator/navigation -->
<g id="node4" class="node">
<title>/navigator/navigation</title>
<polygon fill="#fbd740" stroke="#000000" points="709.5,-36 540.5,-36 540.5,0 709.5,0 709.5,-36"/>
<text text-anchor="middle" x="625" y="-14.3" font-family="sans-serif" font-size="14.00" fill="#000000">/navigator/navigation</text>
</g>
<!-- /navigator&#45;&gt;/navigator/navigation -->
<g id="edge3" class="edge">
<title>/navigator&#45;&gt;/navigator/navigation</title>
<path fill="none" stroke="#000000" d="M625,-71.8314C625,-64.131 625,-54.9743 625,-46.4166"/>
<polygon fill="#000000" stroke="#000000" points="628.5001,-46.4132 625,-36.4133 621.5001,-46.4133 628.5001,-46.4132"/>
</g>
<!-- /navigator/odometry -->
<g id="node5" class="node">
<title>/navigator/odometry</title>
<polygon fill="#fbd740" stroke="#000000" points="892,-36 728,-36 728,0 892,0 892,-36"/>
<text text-anchor="middle" x="810" y="-14.3" font-family="sans-serif" font-size="14.00" fill="#000000">/navigator/odometry</text>
</g>
<!-- /navigator&#45;&gt;/navigator/odometry -->
<g id="edge4" class="edge">
<title>/navigator&#45;&gt;/navigator/odometry</title>
<path fill="none" stroke="#000000" d="M661.55,-75.7751C687.9652,-65.4946 724.1312,-51.4192 754.1525,-39.7353"/>
<polygon fill="#000000" stroke="#000000" points="755.6139,-42.9223 763.6636,-36.0336 753.075,-36.3989 755.6139,-42.9223"/>
</g>
<!-- /navigator/usbl_ned -->
<g id="node6" class="node">
<title>/navigator/usbl_ned</title>
<polygon fill="#fbd740" stroke="#000000" points="1068,-36 910,-36 910,0 1068,0 1068,-36"/>
<text text-anchor="middle" x="989" y="-14.3" font-family="sans-serif" font-size="14.00" fill="#000000">/navigator/usbl_ned</text>
</g>
<!-- /navigator&#45;&gt;/navigator/usbl_ned -->
<g id="edge5" class="edge">
<title>/navigator&#45;&gt;/navigator/usbl_ned</title>
<path fill="none" stroke="#000000" d="M674.3837,-80.4699C727.5763,-70.1753 814.9774,-53.1749 900.0311,-36.1863"/>
<polygon fill="#000000" stroke="#000000" points="900.7328,-39.6154 909.8524,-34.2225 899.3602,-32.7512 900.7328,-39.6154"/>
</g>
<!-- /navigator/altitude -->
<g id="node7" class="node">
<title>/navigator/altitude</title>
<polygon fill="#fbd740" stroke="#000000" points="148,-180 0,-180 0,-144 148,-144 148,-180"/>
<text text-anchor="middle" x="74" y="-158.3" font-family="sans-serif" font-size="14.00" fill="#000000">/navigator/altitude</text>
</g>
<!-- /navigator/altitude&#45;&gt;/navigator -->
<g id="edge6" class="edge">
<title>/navigator/altitude&#45;&gt;/navigator</title>
<path fill="none" stroke="#000000" d="M148.142,-145.5416C151.1295,-144.9987 154.0907,-144.4821 157,-144 299.375,-120.4069 467.8192,-103.6832 558.757,-95.5678"/>
<polygon fill="#000000" stroke="#000000" points="559.2675,-99.0364 568.9198,-94.6679 558.6501,-92.0636 559.2675,-99.0364"/>
</g>
<!-- /navigator/dvl -->
<g id="node8" class="node">
<title>/navigator/dvl</title>
<polygon fill="#fbd740" stroke="#000000" points="281.5,-180 166.5,-180 166.5,-144 281.5,-144 281.5,-180"/>
<text text-anchor="middle" x="224" y="-158.3" font-family="sans-serif" font-size="14.00" fill="#000000">/navigator/dvl</text>
</g>
<!-- /navigator/dvl&#45;&gt;/navigator -->
<g id="edge7" class="edge">
<title>/navigator/dvl&#45;&gt;/navigator</title>
<path fill="none" stroke="#000000" d="M281.6526,-146.1103C284.8071,-145.3662 287.9382,-144.657 291,-144 384.413,-123.9555 493.9525,-107.5833 561.4181,-98.3084"/>
<polygon fill="#000000" stroke="#000000" points="562.0328,-101.757 571.4675,-96.9366 561.086,-94.8213 562.0328,-101.757"/>
</g>
<!-- /navigator/dvl_fallback -->
<g id="node9" class="node">
<title>/navigator/dvl_fallback</title>
<polygon fill="#fbd740" stroke="#000000" points="478,-180 300,-180 300,-144 478,-144 478,-180"/>
<text text-anchor="middle" x="389" y="-158.3" font-family="sans-serif" font-size="14.00" fill="#000000">/navigator/dvl_fallback</text>
</g>
<!-- /navigator/dvl_fallback&#45;&gt;/navigator -->
<g id="edge8" class="edge">
<title>/navigator/dvl_fallback&#45;&gt;/navigator</title>
<path fill="none" stroke="#000000" d="M448.2481,-143.9243C486.9776,-132.1085 537.0438,-116.8341 573.9984,-105.5598"/>
<polygon fill="#000000" stroke="#000000" points="575.0304,-108.9043 583.5738,-102.6385 572.9877,-102.209 575.0304,-108.9043"/>
</g>
<!-- /navigator/gps -->
<g id="node10" class="node">
<title>/navigator/gps</title>
<polygon fill="#fbd740" stroke="#000000" points="615.5,-180 496.5,-180 496.5,-144 615.5,-144 615.5,-180"/>
<text text-anchor="middle" x="556" y="-158.3" font-family="sans-serif" font-size="14.00" fill="#000000">/navigator/gps</text>
</g>
<!-- /navigator/gps&#45;&gt;/navigator -->
<g id="edge9" class="edge">
<title>/navigator/gps&#45;&gt;/navigator</title>
<path fill="none" stroke="#000000" d="M573.4116,-143.8314C581.8541,-135.0218 592.1231,-124.3063 601.2697,-114.7621"/>
<polygon fill="#000000" stroke="#000000" points="603.9159,-117.0593 608.308,-107.4177 598.862,-112.2159 603.9159,-117.0593"/>
</g>
<!-- /navigator/imu -->
<g id="node11" class="node">
<title>/navigator/imu</title>
<polygon fill="#fbd740" stroke="#000000" points="754.5,-180 633.5,-180 633.5,-144 754.5,-144 754.5,-180"/>
<text text-anchor="middle" x="694" y="-158.3" font-family="sans-serif" font-size="14.00" fill="#000000">/navigator/imu</text>
</g>
<!-- /navigator/imu&#45;&gt;/navigator -->
<g id="edge10" class="edge">
<title>/navigator/imu&#45;&gt;/navigator</title>
<path fill="none" stroke="#000000" d="M676.5884,-143.8314C668.1459,-135.0218 657.8769,-124.3063 648.7303,-114.7621"/>
<polygon fill="#000000" stroke="#000000" points="651.138,-112.2159 641.692,-107.4177 646.0841,-117.0593 651.138,-112.2159"/>
</g>
<!-- /navigator/pressure -->
<g id="node12" class="node">
<title>/navigator/pressure</title>
<polygon fill="#fbd740" stroke="#000000" points="929.5,-180 772.5,-180 772.5,-144 929.5,-144 929.5,-180"/>
<text text-anchor="middle" x="851" y="-158.3" font-family="sans-serif" font-size="14.00" fill="#000000">/navigator/pressure</text>
</g>
<!-- /navigator/pressure&#45;&gt;/navigator -->
<g id="edge11" class="edge">
<title>/navigator/pressure&#45;&gt;/navigator</title>
<path fill="none" stroke="#000000" d="M794.2624,-143.9243C757.6903,-132.273 710.5622,-117.2587 675.3259,-106.033"/>
<polygon fill="#000000" stroke="#000000" points="676.3121,-102.6739 665.7214,-102.9732 674.1871,-109.3436 676.3121,-102.6739"/>
</g>
<!-- /navigator/sound_velocity -->
<g id="node13" class="node">
<title>/navigator/sound_velocity</title>
<polygon fill="#fbd740" stroke="#000000" points="1148,-180 948,-180 948,-144 1148,-144 1148,-180"/>
<text text-anchor="middle" x="1048" y="-158.3" font-family="sans-serif" font-size="14.00" fill="#000000">/navigator/sound_velocity</text>
</g>
<!-- /navigator/sound_velocity&#45;&gt;/navigator -->
<g id="edge12" class="edge">
<title>/navigator/sound_velocity&#45;&gt;/navigator</title>
<path fill="none" stroke="#000000" d="M947.7549,-144.937C866.4216,-131.093 754.4023,-112.0259 685.9882,-100.381"/>
<polygon fill="#000000" stroke="#000000" points="686.2524,-96.8757 675.8069,-98.648 685.0778,-103.7764 686.2524,-96.8757"/>
</g>
<!-- /navigator/usbl -->
<g id="node14" class="node">
<title>/navigator/usbl</title>
<polygon fill="#fbd740" stroke="#000000" points="1289.5,-180 1166.5,-180 1166.5,-144 1289.5,-144 1289.5,-180"/>
<text text-anchor="middle" x="1228" y="-158.3" font-family="sans-serif" font-size="14.00" fill="#000000">/navigator/usbl</text>
</g>
<!-- /navigator/usbl&#45;&gt;/navigator -->
<g id="edge13" class="edge">
<title>/navigator/usbl&#45;&gt;/navigator</title>
<path fill="none" stroke="#000000" d="M1166.1601,-145.7521C1163.0714,-145.1198 1160.0055,-144.5305 1157,-144 991.2749,-114.7456 793.5006,-99.8453 692.1616,-93.6392"/>
<polygon fill="#000000" stroke="#000000" points="692.2596,-90.1389 682.067,-93.0303 691.8381,-97.1262 692.2596,-90.1389"/>
</g>
</g>
</svg>
