<?xml version="1.0" encoding="UTF-8" standalone="no"?>
<!DOCTYPE svg PUBLIC "-//W3C//DTD SVG 1.1//EN"
 "http://www.w3.org/Graphics/SVG/1.1/DTD/svg11.dtd">
<!-- Generated by graphviz version 2.40.1 (20161225.0304)
 -->
<!-- Title: G Pages: 1 -->
<svg width="237pt" height="116pt"
 viewBox="0.00 0.00 237.00 116.00" xmlns="http://www.w3.org/2000/svg" xmlns:xlink="http://www.w3.org/1999/xlink">
<g id="graph0" class="graph" transform="scale(1 1) rotate(0) translate(4 112)">
<title>G</title>
<polygon fill="#ffffff" stroke="transparent" points="-4,4 -4,-112 233,-112 233,4 -4,4"/>
<!-- /param_logger -->
<g id="node1" class="node">
<title>/param_logger</title>
<ellipse fill="#072c43" stroke="#000000" cx="114.5" cy="-90" rx="79.0865" ry="18"/>
<text text-anchor="middle" x="114.5" y="-86.3" font-family="sans-serif" font-size="14.00" fill="#a4c4bf">/param_logger</text>
</g>
<!-- /param_logger/params_string -->
<g id="node2" class="node">
<title>/param_logger/params_string</title>
<polygon fill="#fbd740" stroke="#000000" points="229,-36 0,-36 0,0 229,0 229,-36"/>
<text text-anchor="middle" x="114.5" y="-14.3" font-family="sans-serif" font-size="14.00" fill="#000000">/param_logger/params_string</text>
</g>
<!-- /param_logger&#45;&gt;/param_logger/params_string -->
<g id="edge1" class="edge">
<title>/param_logger&#45;&gt;/param_logger/params_string</title>
<path fill="none" stroke="#000000" d="M114.5,-71.8314C114.5,-64.131 114.5,-54.9743 114.5,-46.4166"/>
<polygon fill="#000000" stroke="#000000" points="118.0001,-46.4132 114.5,-36.4133 111.0001,-46.4133 118.0001,-46.4132"/>
</g>
</g>
</svg>
