<?xml version="1.0" encoding="UTF-8" standalone="no"?>
<!DOCTYPE svg PUBLIC "-//W3C//DTD SVG 1.1//EN"
 "http://www.w3.org/Graphics/SVG/1.1/DTD/svg11.dtd">
<!-- Generated by graphviz version 2.40.1 (20161225.0304)
 -->
<!-- Title: G Pages: 1 -->
<svg width="122pt" height="116pt"
 viewBox="0.00 0.00 122.39 116.00" xmlns="http://www.w3.org/2000/svg" xmlns:xlink="http://www.w3.org/1999/xlink">
<g id="graph0" class="graph" transform="scale(1 1) rotate(0) translate(4 112)">
<title>G</title>
<polygon fill="#ffffff" stroke="transparent" points="-4,4 -4,-112 118.3899,-112 118.3899,4 -4,4"/>
<!-- /keyboard -->
<g id="node1" class="node">
<title>/keyboard</title>
<ellipse fill="#072c43" stroke="#000000" cx="57.1949" cy="-90" rx="57.3905" ry="18"/>
<text text-anchor="middle" x="57.1949" y="-86.3" font-family="sans-serif" font-size="14.00" fill="#a4c4bf">/keyboard</text>
</g>
<!-- /joy -->
<g id="node2" class="node">
<title>/joy</title>
<polygon fill="#fbd740" stroke="#000000" points="84.1949,-36 30.1949,-36 30.1949,0 84.1949,0 84.1949,-36"/>
<text text-anchor="middle" x="57.1949" y="-14.3" font-family="sans-serif" font-size="14.00" fill="#000000">/joy</text>
</g>
<!-- /keyboard&#45;&gt;/joy -->
<g id="edge1" class="edge">
<title>/keyboard&#45;&gt;/joy</title>
<path fill="none" stroke="#000000" d="M57.1949,-71.8314C57.1949,-64.131 57.1949,-54.9743 57.1949,-46.4166"/>
<polygon fill="#000000" stroke="#000000" points="60.695,-46.4132 57.1949,-36.4133 53.695,-46.4133 60.695,-46.4132"/>
</g>
</g>
</svg>
